{
	"index":{
		"product_list":[
			{
				"pic": "Data/Thoitrang/Balo.jpg",
				"name": "Balo",
				"starttime": "15/10/2016",
				"endtime": "2016-10-30T17:30:00",
				"currentbid": "50000"
			},
			{
				"pic": "Data/Thoitrang/kinhram.jpg",
				"name": "Kính râm",
				"starttime": "16/10/2016",
				"endtime": "2016-10-29T11:00:00",
				"currentbid": "80000"
			},
			{
				"pic": "Data/Thoitrang/deplao.jpg",
				"name": "Dép lào",
				"starttime": "15/10/2016",
				"endtime": "2016-10-30T14:45:00",
				"currentbid": "35000"
			},
			{
				"pic": "Data/Thoitrang/nonluoitrai.jpg",
				"name": "Nón lưỡi trai",
				"starttime": "18/10/2016",
				"endtime": "2016-10-25T08:45:00",
				"currentbid": "50000"
			},
			{
				"pic": "Data/Thoitrang/aothun.jpg",
				"name": "Áo thun",
				"starttime": "15/10/2016",
				"endtime": "2016-10-26T09:00:00",
				"currentbid": "50000"
			},
			{
				"pic": "Data/Thoitrang/vida.jpg",
				"name": "Ví da",
				"starttime": "12/10/2016",
				"endtime": "2016-10-25T10:45:00",
				"currentbid": "45000"
			},
			{
				"pic": "Data/Thoitrang/thatlung.jpg",
				"name": "Thắt lưng nam",
				"starttime": "18/10/2016",
				"endtime": "2016-10-26T11:59:00",
				"currentbid": "60000"
			},
			{
				"pic": "Data/Thoitrang/giayluoinam.jpg",
				"name": "Giày lười nam",
				"starttime": "17/10/2016",
				"endtime": "2016-10-28T09:30:30",
				"currentbid": "100000"
			}
		]
	},

	"index-after-login":{
		"product_list":[
			{
				"pic": "Data/Thoitrang/Balo.jpg",
				"name": "Balo",
				"starttime": "15/10/2016",
				"endtime": "2016-10-30T17:30:00",
				"currentbid": "50000"
			},
			{
				"pic": "Data/Thoitrang/kinhram.jpg",
				"name": "Kính râm",
				"starttime": "16/10/2016",
				"endtime": "2016-10-29T11:00:00",
				"currentbid": "80000"
			},
			{
				"pic": "Data/Thoitrang/deplao.jpg",
				"name": "Dép lào",
				"starttime": "15/10/2016",
				"endtime": "2016-10-30T14:45:00",
				"currentbid": "35000"
			},
			{
				"pic": "Data/Thoitrang/nonluoitrai.jpg",
				"name": "Nón lưỡi trai",
				"starttime": "18/10/2016",
				"endtime": "2016-10-25T08:45:00",
				"currentbid": "50000"
			},
			{
				"pic": "Data/Thoitrang/aothun.jpg",
				"name": "Áo thun",
				"starttime": "15/10/2016",
				"endtime": "2016-10-26T09:00:00",
				"currentbid": "50000"
			},
			{
				"pic": "Data/Thoitrang/vida.jpg",
				"name": "Ví da",
				"starttime": "12/10/2016",
				"endtime": "2016-10-25T10:45:00",
				"currentbid": "45000"
			},
			{
				"pic": "Data/Thoitrang/thatlung.jpg",
				"name": "Thắt lưng nam",
				"starttime": "18/10/2016",
				"endtime": "2016-10-26T11:59:00",
				"currentbid": "60000"
			},
			{
				"pic": "Data/Thoitrang/giayluoinam.jpg",
				"name": "Giày lười nam",
				"starttime": "17/10/2016",
				"endtime": "2016-10-28T09:30:30",
				"currentbid": "100000"
			}
		]
	},

	"about-us-page":{
		"members":[
			{
				"image":"Data/Images/member-ngan.jpg",
				"name": "Ngân Kim",
				"position": "Founder",
				"quote":"Time doens't make history. People do!",
				"discription": ""
			},
			{
				"image": "Data/Images/member-danh.jpg",
				"name": "Trọng Trí",
				"position": "Co-founder",
				"quote":"Don't limit your challenges. Challenge your limits.",
				"discription": ""
			},
			{
				"image": "Data/Images/member-hao.jpg",
				"name": "Viết Huy Phan",
				"position": "Manager",
				"quote":"Every damn day. Just do it!",
				"discription": ""
			}
		]
	},

	"auction-end-page":{
		"product_list":[
			{
				"image": "Data/Khac/tony01.jpg",
				"name": "Tony buổi sáng",
				"winner": "Vinh Lâm",
				"price": "40000"
			},
			{
				"image": "Data/Khac/dacnhantam01.jpg",
				"name": "Đắc Nhân Tâm",
				"winner": "Mai Nguyễn",
				"price": "35000"
			},
			{
				"image": "Data/Giadung/bepnuong01.jpg",
				"name": "Bếp nướng điện",
				"winner": "Hà Trần",
				"price": "280000"
			},
			{
				"image": "Data/Congnghe/iphone01.jpg",
				"name": "Iphone 6",
				"winner": "Ngân Kim",
				"price": "5970000"
			},
			{
				"image": "Data/Congnghe/macbook01.png",
				"name": "Macbook",
				"winner": "Huy Phan",
				"price": "9900000"
			},
			{
				"image": "Data/Giadung/hopcom01.jpg",
				"name": "Hộp cơm",
				"winner": "Mai Trần",
				"price": "3500000"
			},
			{
				"image": "Data/Giadung/chaochongdinh01.png",
				"name": "Chảo chống dính",
				"winner": "Hải Trương",
				"price": "185000"
			},
			{
				"image": "Data/Giadung/noi01.jpg",
				"name": "Nồi canh",
				"winner": "Trâm Anh",
				"price": "487000"
			}
		]
	},

	"auction-result-page":{
		"product_list":[
			{
				"id" : "001",
				"image": "Data/Khac/tony01.jpg",
				"name": "Tony buổi sáng",
				"winner": "Vinh Lâm",
				"price": "40000"
			},
			{
				"id" : "002",
				"image": "Data/Khac/dacnhantam01.jpg",
				"name": "Đắc Nhân Tâm",
				"winner": "Mai Nguyễn",
				"price": "35000"
			},
			{
				"id" : "003",
				"image": "Data/Giadung/bepnuong01.jpg",
				"name": "Bếp nướng điện",
				"winner": "Hà Trần",
				"price": "280000"
			},
			{
				"id" : "004",
				"image": "Data/Congnghe/iphone01.jpg",
				"name": "Iphone 6",
				"winner": "Ngân Kim",
				"price": "5970000"
			},
			{
				"id" : "005",
				"image": "Data/Congnghe/macbook01.png",
				"name": "Macbook",
				"winner": "Huy Phan",
				"price": "9900000"
			},
			{
				"id" : "006",
				"image": "Data/Giadung/hopcom01.jpg",
				"name": "Hộp cơm",
				"winner": "Mai Trần",
				"price": "3500000"
			},
			{
				"id" : "007",
				"image": "Data/Giadung/chaochongdinh01.png",
				"name": "Chảo chống dính",
				"winner": "Hải Trương",
				"price": "185000"
			},
			{
				"id" : "008",
				"image": "Data/Giadung/noi01.jpg",
				"name": "Nồi canh",
				"winner": "Trâm Anh",
				"price": "487000"
			}
		]
	},

	"auction-history-page":{
		"product_list": [
			{
				"id" : "124",
				"image": "Data/Giadung/hopcom01.jpg",
				"name": "Hộp cơm",
				"winner": "Ngân Kim",
				"price": "3500000"
			},
				{
				"id" : "067",
				"image": "Data/Congnghe/iphone01.jpg",
				"name": "Iphone 6",
				"winner": "Huy Phan",
				"price": "5970000"
			},
			{
				"id" : "874",
				"image": "Data/Congnghe/macbook01.png",
				"name": "Macbook",
				"winner": "Ngân Kim",
				"price": "9900000"
			},
			{
				"id" : "555",
				"image": "Data/Khac/tony01.jpg",
				"name": "Tony buổi sáng",
				"winner": "",
				"price": "40000"
			},
			{
				"id" : "125",
				"image": "Data/Giadung/chaochongdinh01.png",
				"name": "Chảo chống dính",
				"winner": "Hải Trương",
				"price": "185000"
			},
			{
				"id" : "236",
				"image": "Data/Giadung/noi01.jpg",
				"name": "Nồi canh",
				"winner": "",
				"price": "487000"
			}
		]
	},

	"_layout":{
		"logins":[
			{
				"id": "0"
			}
		]
	}
}